[
  {
    "exchange": {
      "name": "Binance"
    },
    "assetSymbol": "USD",
    "assetAlias": "USDT"
  },
  {
    "exchange": {
      "name": "Binance"
    },
    "assetSymbol": "BCH",
    "assetAlias": "BCC"
  },
  {
    "exchange": {
      "name": "Market"
    },
    "assetSymbol": "USDT",
    "assetAlias": "USD"
  },
  {
    "exchange": {
      "name": "Market"
    },
    "assetSymbol": "BCC",
    "assetAlias": "BCH"
  },
  {
    "exchange": {
      "name": "Market"
    },
    "assetSymbol": "IOTA",
    "assetAlias": "IOT"
  }
]
